…
This dataset contains 1384617 rows and 15 columns. Observations are at
the level of items in orders by users. There are user/order variables –
user ID, order number, order ID, order day, and order hour. There are
also item variables – name, aisle, department, and some numeric codes.

How many aisles, and which are most items from?

``` r
instacart %>%
  count(aisle) %>%
  arrange(desc(n))
```

    ## # A tibble: 134 x 2
    ##    aisle                              n
    ##    <chr>                          <int>
    ##  1 fresh vegetables              150609
    ##  2 fresh fruits                  150473
    ##  3 packaged vegetables fruits     78493
    ##  4 yogurt                         55240
    ##  5 packaged cheese                41699
    ##  6 water seltzer sparkling water  36617
    ##  7 milk                           32644
    ##  8 chips pretzels                 31269
    ##  9 soy lactosefree                26240
    ## 10 bread                          23635
    ## # … with 124 more rows
…
Traditional analyses of accelerometer data focus on the total activity
over the day. I will now aggregate across minutes to create a total
activity variable for each day, and create a table showing these totals.

``` r
#create a summary dataset containing activity totals for each day and week
summ.accel = accel_data %>%
  group_by(day, week) %>%
  summarise(total = sum(activity))
summ.accel
```

    ## # A tibble: 35 x 3
    ## # Groups:   day [7]
    ##    day     week   total
    ##    <chr>  <dbl>   <dbl>
    ##  1 Friday     1 480543.
    ##  2 Friday     2 568839 
    ##  3 Friday     3 467420 
    ##  4 Friday     4 154049 
    ##  5 Friday     5 620860 
    ##  6 Monday     1  78828.
    ##  7 Monday     2 295431 
    ##  8 Monday     3 685910 
    ##  9 Monday     4 409450 
    ## 10 Monday     5 389080 
    ## # … with 25 more rows
…
For snowfall, what are the most commonly observed values? Why?

``` r
ny_noaa %>%
  group_by(snow) %>%
  count(snow, name = "n_obs") %>%
  arrange(desc(n_obs))
```

    ## # A tibble: 282 x 2
    ## # Groups:   snow [282]
    ##     snow   n_obs
    ##    <int>   <int>
    ##  1     0 2008508
    ##  2    NA  381221
    ##  3    25   31022
    ##  4    13   23095
    ##  5    51   18274
    ##  6    76   10173
    ##  7     8    9962
    ##  8     5    9748
    ##  9    38    9197
    ## 10     3    8790
    ## # … with 272 more rows
…
